aula1/simulation/qsim/GateDemo.msim.vcd
$comment
	File created using the following command:
		vcd file GateDemo.msim.vcd -direction
$end
$date
	Fri Feb 17 13:16:46 2017
$end
$version
	ModelSim Version 10.4b
$end
$timescale
	1ps
$end

$scope module GateDemo_vlg_vec_tst $end
$var reg 2 ! SW [1:0] $end
$var wire 1 " LEDR [0] $end

$scope module i1 $end
$var wire 1 # gnd $end
$var wire 1 $ vcc $end
$var wire 1 % unknown $end
$var tri1 1 & devclrn $end
$var tri1 1 ' devpor $end
$var tri1 1 ( devoe $end
$var wire 1 ) LEDR[0]~output_o $end
$var wire 1 * SW[1]~input_o $end
$var wire 1 + SW[0]~input_o $end
$var wire 1 , inst~combout $end
$upscope $end
$upscope $end
$enddefinitions $end
#0
$dumpvars
b0 !
0"
0#
1$
x%
1&
1'
1(
0)
0*
0+
0,
$end
#10000
b10 !
b11 !
1+
1*
1,
1)
1"
#70000
b1 !
b0 !
0+
0*
0,
0)
0"
#80000
b1 !
1+
#160000
b0 !
0+
#170000
b10 !
1*
#280000
b0 !
0*
#290000
b1 !
1+
#410000
b0 !
0+
#570000
b10 !
1*
#720000
b0 !
0*
